14 points
30, 85
65, 250
82, 284
120, 140
125, 30
140, 240
173, 176
185, 100
230, 175
275, 30
300, 140
340, 250
370, 155
407, 281

2 matchings

7 segments
0 - 8
1 - 3
2 - 6
4 - 7
5 - 12
9 - 10
11 - 13

7 segments
0 - 3
1 - 7
2 - 6
4 - 9
5 - 13
8 - 11
10 - 12