6 points
41, 191
110, 119
171, 235
208, 78
241, 216
342, 150

5 matchings

3 segments
0 - 1
2 - 3
4 - 5

3 segments
0 - 1
2 - 4
3 - 5

3 segments
0 - 2
1 - 4
3 - 5

3 segments
0 - 5
1 - 3
2 - 4

3 segments
0 - 2
1 - 3
4 - 5